<?xml version="1.0" encoding="utf-8"?>
<!-- Generator: Adobe Illustrator 25.0.0, SVG Export Plug-In . SVG Version: 6.00 Build 0)  -->
<svg version="1.1" id="Laag_1" xmlns="http://www.w3.org/2000/svg" xmlns:xlink="http://www.w3.org/1999/xlink" x="0px" y="0px"
	 viewBox="0 0 139.06 136.94" style="enable-background:new 0 0 139.06 136.94;" xml:space="preserve">
<style type="text/css">
	.st0{fill-rule:evenodd;clip-rule:evenodd;fill:#040007;}
	.st1{clip-path:url(#SVGID_2_);fill:none;stroke:#040007;stroke-width:0.1854;stroke-miterlimit:22.9256;}
	.st2{clip-path:url(#SVGID_4_);}
	.st3{fill:#020304;}
	.st4{clip-path:url(#SVGID_6_);}
	.st5{fill:none;stroke:#000000;stroke-width:0.0744;stroke-miterlimit:1;}
	.st6{font-family:'HelveticaNeue-UltraLigExt';}
	.st7{font-size:12.9876px;}
	.st8{clip-path:url(#SVGID_8_);}
	.st9{stroke:#000000;stroke-width:0.024;stroke-miterlimit:1;}
	.st10{font-size:4.5838px;}
	.st11{fill:none;stroke:#000000;stroke-width:0.2;stroke-miterlimit:10;}
</style>
<path class="st0" d="M87.1,63.46C79.29,49.9,61.96,45.24,48.4,53.04c-13.56,7.8-18.23,25.13-10.42,38.69
	c7.81,13.56,25.13,18.23,38.69,10.42C90.24,94.35,94.9,77.02,87.1,63.46L87.1,63.46z M86.74,63.67
	C79.04,50.31,61.97,45.71,48.61,53.4c-13.36,7.69-17.96,24.77-10.27,38.13c7.69,13.36,24.77,17.96,38.13,10.27
	C89.83,94.11,94.43,77.03,86.74,63.67"/>
<path class="st0" d="M87.1,63.46C79.29,49.9,61.96,45.24,48.4,53.04c-13.56,7.8-18.23,25.13-10.42,38.69
	c7.81,13.56,25.13,18.23,38.69,10.42C90.24,94.35,94.9,77.02,87.1,63.46L87.1,63.46z M86.74,63.67
	C79.04,50.31,61.97,45.71,48.61,53.4c-13.36,7.69-17.96,24.77-10.27,38.13c7.69,13.36,24.77,17.96,38.13,10.27
	C89.83,94.11,94.43,77.03,86.74,63.67"/>
<path class="st0" d="M106.88,26.2c-5.33-14.71-21.59-22.31-36.3-16.98c-14.71,5.33-22.31,21.59-16.98,36.3
	c5.33,14.71,21.59,22.31,36.3,16.98C104.61,57.17,112.21,40.91,106.88,26.2L106.88,26.2z M106.49,26.34
	c-5.26-14.5-21.27-21.99-35.77-16.73c-14.49,5.25-21.99,21.27-16.73,35.77c5.26,14.49,21.27,21.99,35.77,16.73
	C104.25,56.85,111.75,40.84,106.49,26.34"/>
<path class="st0" d="M85.53,66.39c-5.33-14.71-21.59-22.31-36.3-16.98C34.52,54.74,26.91,71,32.25,85.71
	c5.33,14.71,21.59,22.32,36.3,16.98C83.25,97.36,90.86,81.1,85.53,66.39L85.53,66.39z M85.14,66.53
	C79.88,52.04,63.86,44.54,49.37,49.8c-14.49,5.25-21.99,21.27-16.73,35.77c5.26,14.49,21.27,21.99,35.77,16.73
	C82.9,97.05,90.39,81.03,85.14,66.53"/>
<path class="st0" d="M111.48,33.13c-2.7-15.41-17.39-25.72-32.8-23.03c-15.41,2.7-25.72,17.39-23.03,32.8
	c2.7,15.41,17.38,25.72,32.8,23.03C103.87,63.23,114.18,48.54,111.48,33.13L111.48,33.13z M111.07,33.2
	c-2.66-15.19-17.13-25.35-32.32-22.69c-15.19,2.66-25.35,17.13-22.69,32.32c2.66,15.19,17.13,25.35,32.32,22.69
	C103.57,62.86,113.73,48.39,111.07,33.2"/>
<path class="st0" d="M83.47,69.01c-2.7-15.41-17.39-25.72-32.8-23.03c-15.41,2.7-25.72,17.38-23.03,32.8
	c2.7,15.41,17.38,25.72,32.8,23.03C75.86,99.11,86.17,84.42,83.47,69.01L83.47,69.01z M83.06,69.08
	c-2.66-15.19-17.13-25.35-32.32-22.69C35.56,49.04,25.4,63.52,28.05,78.7c2.66,15.19,17.13,25.35,32.32,22.69
	C75.56,98.74,85.72,84.26,83.06,69.08"/>
<path class="st0" d="M105.35,87.54c13.56-7.81,18.23-25.14,10.42-38.7c-7.8-13.56-25.13-18.23-38.69-10.42
	c-13.56,7.81-18.23,25.13-10.42,38.69C74.46,90.68,91.79,95.34,105.35,87.54L105.35,87.54z M105.14,87.18
	c13.36-7.69,17.96-24.77,10.27-38.13c-7.69-13.36-24.77-17.96-38.13-10.27c-13.36,7.69-17.96,24.77-10.27,38.13
	C74.7,90.27,91.78,94.87,105.14,87.18"/>
<path class="st0" d="M62.06,73.49c13.56-7.81,18.23-25.14,10.42-38.7c-7.8-13.56-25.13-18.23-38.69-10.42
	C20.22,32.18,15.56,49.5,23.36,63.06C31.17,76.63,48.5,81.29,62.06,73.49L62.06,73.49z M61.85,73.13
	C75.21,65.43,79.81,48.36,72.12,35c-7.69-13.36-24.77-17.96-38.13-10.27C20.63,32.42,16.03,49.5,23.72,62.86
	C31.41,76.22,48.49,80.82,61.85,73.13"/>
<path class="st0" d="M105.35,87.54c13.56-7.81,18.23-25.14,10.42-38.7c-7.8-13.56-25.13-18.23-38.69-10.42
	c-13.56,7.81-18.23,25.13-10.42,38.69C74.46,90.68,91.79,95.34,105.35,87.54L105.35,87.54z M105.14,87.18
	c13.36-7.69,17.96-24.77,10.27-38.13c-7.69-13.36-24.77-17.96-38.13-10.27c-13.36,7.69-17.96,24.77-10.27,38.13
	C74.7,90.27,91.78,94.87,105.14,87.18"/>
<path class="st0" d="M62.06,73.49c13.56-7.81,18.23-25.14,10.42-38.7c-7.8-13.56-25.13-18.23-38.69-10.42
	C20.22,32.18,15.56,49.5,23.36,63.06C31.17,76.63,48.5,81.29,62.06,73.49L62.06,73.49z M61.85,73.13
	C75.21,65.43,79.81,48.36,72.12,35c-7.69-13.36-24.77-17.96-38.13-10.27C20.63,32.42,16.03,49.5,23.72,62.86
	C31.41,76.22,48.49,80.82,61.85,73.13"/>
<path class="st0" d="M99.32,93.27c14.71-5.33,22.31-21.59,16.98-36.3C110.97,42.26,94.71,34.66,80,39.99
	c-14.71,5.33-22.31,21.59-16.98,36.3C68.35,91,84.61,98.6,99.32,93.27L99.32,93.27z M99.18,92.88c14.5-5.26,21.99-21.27,16.73-35.77
	c-5.25-14.49-21.27-21.99-35.77-16.73c-14.49,5.25-21.99,21.27-16.73,35.76C68.66,90.64,84.68,98.14,99.18,92.88"/>
<path class="st0" d="M59.13,71.92c14.71-5.33,22.31-21.59,16.98-36.3c-5.33-14.71-21.59-22.31-36.3-16.98
	C25.1,23.97,17.5,40.22,22.83,54.93C28.16,69.64,44.42,77.25,59.13,71.92L59.13,71.92z M58.99,71.53
	c14.5-5.26,21.99-21.27,16.73-35.77c-5.25-14.49-21.27-21.99-35.77-16.73C25.46,24.28,17.96,40.3,23.22,54.79
	C28.47,69.29,44.49,76.78,58.99,71.53"/>
<path class="st0" d="M92.39,97.87c15.41-2.7,25.72-17.39,23.03-32.8c-2.7-15.41-17.38-25.72-32.8-23.03
	c-15.41,2.7-25.72,17.38-23.03,32.8C62.29,90.26,76.97,100.57,92.39,97.87L92.39,97.87z M92.31,97.46
	c15.19-2.66,25.35-17.13,22.69-32.32c-2.66-15.19-17.13-25.35-32.32-22.69C67.5,45.11,57.34,59.59,60,74.77
	C62.65,89.96,77.13,100.12,92.31,97.46"/>
<path class="st0" d="M56.51,69.86c15.41-2.7,25.72-17.39,23.03-32.8c-2.7-15.41-17.38-25.72-32.8-23.03
	c-15.41,2.7-25.72,17.38-23.03,32.8C26.41,62.25,41.1,72.56,56.51,69.86L56.51,69.86z M56.44,69.45
	c15.19-2.66,25.35-17.13,22.69-32.32C76.47,21.95,62,11.79,46.81,14.44S21.47,31.57,24.12,46.76
	C26.78,61.95,41.25,72.11,56.44,69.45"/>
<path class="st0" d="M86.44,69.06c15.65,0.02,28.35-12.65,28.37-28.3c0.02-15.65-12.65-28.35-28.3-28.37
	c-15.65-0.02-28.35,12.65-28.37,28.3C58.12,56.33,70.79,69.04,86.44,69.06L86.44,69.06z M86.44,67.36
	c14.71,0.02,26.66-11.9,26.68-26.61c0.02-14.71-11.9-26.66-26.61-26.68c-14.71-0.02-26.66,11.9-26.68,26.61
	c-0.01,5.83,1.86,11.22,5.03,15.61c0.16,2.16,1.78,3.93,3.88,4.3C73.44,64.8,79.64,67.36,86.44,67.36"/>
<path class="st0" d="M52.62,99.52c15.65,0.02,28.35-12.65,28.37-28.3c0.02-15.65-12.65-28.35-28.3-28.37
	c-15.65-0.02-28.35,12.65-28.37,28.3C24.3,86.8,36.97,99.5,52.62,99.52L52.62,99.52z M52.62,97.83
	c14.71,0.02,26.66-11.9,26.68-26.61c0.01-5.83-1.86-11.22-5.03-15.61c-0.16-2.16-1.78-3.92-3.87-4.3c-4.7-4.2-10.91-6.76-17.71-6.77
	c-14.71-0.02-26.66,11.9-26.68,26.61C25.99,85.86,37.91,97.81,52.62,97.83"/>
<path class="st0" d="M86.44,69.06c15.65,0.02,28.35-12.65,28.37-28.3c0.02-15.65-12.65-28.35-28.3-28.37
	c-15.65-0.02-28.35,12.65-28.37,28.3C58.12,56.33,70.79,69.04,86.44,69.06L86.44,69.06z M86.44,67.36
	c14.71,0.02,26.66-11.9,26.68-26.61c0.02-14.71-11.9-26.66-26.61-26.68c-14.71-0.02-26.66,11.9-26.68,26.61
	c-0.01,5.83,1.86,11.22,5.03,15.61c0.16,2.16,1.78,3.93,3.88,4.3C73.44,64.8,79.64,67.36,86.44,67.36"/>
<path class="st0" d="M52.62,99.52c15.65,0.02,28.35-12.65,28.37-28.3c0.02-15.65-12.65-28.35-28.3-28.37
	c-15.65-0.02-28.35,12.65-28.37,28.3C24.3,86.8,36.97,99.5,52.62,99.52L52.62,99.52z M52.62,97.83
	c14.71,0.02,26.66-11.9,26.68-26.61c0.01-5.83-1.86-11.22-5.03-15.61c-0.16-2.16-1.78-3.92-3.87-4.3c-4.7-4.2-10.91-6.76-17.71-6.77
	c-14.71-0.02-26.66,11.9-26.68,26.61C25.99,85.86,37.91,97.81,52.62,97.83"/>
<path class="st0" d="M83.9,71.79c15.4,2.74,30.12-7.54,32.86-22.94c2.74-15.41-7.54-30.12-22.94-32.86
	c-15.4-2.74-30.12,7.54-32.85,22.94C58.22,54.34,68.5,69.05,83.9,71.79L83.9,71.79z M84.2,70.12c14.49,2.57,28.32-7.09,30.89-21.57
	c2.57-14.49-7.09-28.32-21.57-30.89c-14.49-2.57-28.32,7.09-30.89,21.57c-1.02,5.74-0.12,11.37,2.24,16.25
	c-0.02,0.16-0.02,0.32-0.02,0.48c0,2.04,1.29,3.77,3.09,4.43C71.84,65.34,77.51,68.93,84.2,70.12"/>
<path class="st0" d="M45.31,95.92c15.4,2.74,30.12-7.54,32.86-22.94c2.74-15.4-7.54-30.12-22.94-32.86
	c-15.4-2.74-30.12,7.54-32.86,22.94C19.63,78.47,29.91,93.18,45.31,95.92L45.31,95.92z M45.61,94.25
	c14.49,2.57,28.32-7.09,30.89-21.57c1.02-5.74,0.12-11.38-2.24-16.25c0.01-0.16,0.02-0.31,0.02-0.47c0-2.03-1.29-3.77-3.09-4.43
	c-3.9-4.95-9.57-8.55-16.26-9.74c-14.49-2.57-28.32,7.09-30.89,21.57C21.46,77.84,31.12,91.68,45.61,94.25"/>
<path class="st0" d="M80.94,74.04c14.7,5.37,30.97-2.19,36.34-16.89c5.37-14.7-2.19-30.97-16.89-36.34
	C85.69,15.44,69.42,23,64.05,37.7C58.68,52.39,66.24,68.67,80.94,74.04L80.94,74.04z M81.52,72.45
	c13.82,5.05,29.12-2.06,34.17-15.88c5.05-13.82-2.06-29.12-15.88-34.17c-13.82-5.05-29.12,2.06-34.17,15.88
	c-2,5.47-2.09,11.18-0.61,16.39c-0.12,0.41-0.18,0.84-0.18,1.29c0,1.74,0.94,3.26,2.35,4.08C70.18,65.59,75.13,70.12,81.52,72.45"/>
<path class="st0" d="M38.74,91.1c14.7,5.37,30.97-2.19,36.34-16.89c5.37-14.7-2.19-30.97-16.89-36.34
	c-14.7-5.37-30.97,2.19-36.34,16.89C16.48,69.46,24.05,85.73,38.74,91.1L38.74,91.1z M39.32,89.51
	c13.82,5.05,29.12-2.06,34.17-15.88c2-5.47,2.09-11.18,0.61-16.39c0.12-0.41,0.18-0.84,0.18-1.28c0-1.74-0.94-3.26-2.35-4.08
	C68.95,46.32,64,41.79,57.61,39.46c-13.82-5.05-29.12,2.06-34.17,15.88C18.39,69.16,25.5,84.46,39.32,89.51"/>
<path class="st0" d="M56.46,72.83c-0.02,15.65,12.65,28.35,28.3,28.37c15.65,0.02,28.35-12.65,28.37-28.3
	c0.02-15.65-12.65-28.35-28.3-28.37C69.19,44.5,56.48,57.18,56.46,72.83L56.46,72.83z M58.15,72.83
	c-0.02,14.71,11.9,26.66,26.61,26.68c14.71,0.02,26.66-11.9,26.68-26.61c0.02-14.71-11.9-26.66-26.61-26.68
	c-5.83-0.01-11.22,1.86-15.61,5.03c-2.16,0.16-3.92,1.78-4.3,3.87C60.72,59.83,58.16,66.03,58.15,72.83"/>
<path class="st0" d="M26,39.01c-0.02,15.65,12.65,28.35,28.3,28.37c15.65,0.02,28.35-12.65,28.37-28.3
	c0.02-15.65-12.65-28.35-28.3-28.37C38.72,10.69,26.02,23.36,26,39.01L26,39.01z M27.69,39.01c-0.02,14.71,11.9,26.66,26.61,26.68
	c5.83,0.01,11.22-1.86,15.61-5.03c2.17-0.16,3.93-1.78,4.3-3.87c4.2-4.7,6.76-10.91,6.77-17.71c0.02-14.71-11.9-26.66-26.61-26.68
	C39.65,12.38,27.71,24.3,27.69,39.01"/>
<path class="st0" d="M56.46,72.83c-0.02,15.65,12.65,28.35,28.3,28.37c15.65,0.02,28.35-12.65,28.37-28.3
	c0.02-15.65-12.65-28.35-28.3-28.37C69.19,44.5,56.48,57.18,56.46,72.83L56.46,72.83z M58.15,72.83
	c-0.02,14.71,11.9,26.66,26.61,26.68c14.71,0.02,26.66-11.9,26.68-26.61c0.02-14.71-11.9-26.66-26.61-26.68
	c-5.83-0.01-11.22,1.86-15.61,5.03c-2.16,0.16-3.92,1.78-4.3,3.87C60.72,59.83,58.16,66.03,58.15,72.83"/>
<path class="st0" d="M26,39.01c-0.02,15.65,12.65,28.35,28.3,28.37c15.65,0.02,28.35-12.65,28.37-28.3
	c0.02-15.65-12.65-28.35-28.3-28.37C38.72,10.69,26.02,23.36,26,39.01L26,39.01z M27.69,39.01c-0.02,14.71,11.9,26.66,26.61,26.68
	c5.83,0.01,11.22-1.86,15.61-5.03c2.17-0.16,3.93-1.78,4.3-3.87c4.2-4.7,6.76-10.91,6.77-17.71c0.02-14.71-11.9-26.66-26.61-26.68
	C39.65,12.38,27.71,24.3,27.69,39.01"/>
<path class="st0" d="M53.73,70.29c-2.74,15.4,7.54,30.12,22.94,32.86c15.41,2.74,30.12-7.54,32.86-22.94
	c2.74-15.41-7.54-30.12-22.94-32.86C71.18,44.61,56.47,54.89,53.73,70.29L53.73,70.29z M55.4,70.59
	c-2.57,14.49,7.09,28.32,21.58,30.89c14.49,2.57,28.32-7.09,30.89-21.57c2.57-14.49-7.09-28.32-21.57-30.89
	C80.55,48,74.91,48.9,70.04,51.26c-0.16-0.01-0.31-0.02-0.47-0.02c-2.03,0-3.77,1.29-4.43,3.09C60.18,58.23,56.59,63.89,55.4,70.59"
	/>
<path class="st0" d="M29.6,31.7c-2.74,15.41,7.54,30.12,22.95,32.86c15.4,2.74,30.12-7.54,32.85-22.94
	c2.74-15.4-7.54-30.12-22.94-32.85C47.05,6.02,32.34,16.3,29.6,31.7L29.6,31.7z M31.27,32c-2.57,14.49,7.09,28.32,21.58,30.89
	c5.74,1.02,11.37,0.12,16.25-2.24c0.16,0.02,0.31,0.02,0.48,0.02c2.03,0,3.77-1.29,4.43-3.09c4.95-3.9,8.55-9.57,9.74-16.26
	C86.31,26.83,76.65,13,62.16,10.42C47.67,7.85,33.84,17.51,31.27,32"/>
<path class="st0" d="M51.48,67.33c-5.37,14.7,2.19,30.97,16.89,36.34c14.7,5.37,30.97-2.19,36.34-16.89
	c5.37-14.7-2.19-30.97-16.89-36.34C73.13,45.07,56.85,52.63,51.48,67.33L51.48,67.33z M53.07,67.91
	c-5.05,13.82,2.06,29.12,15.88,34.17c13.82,5.05,29.12-2.06,34.17-15.88c5.05-13.82-2.06-29.12-15.88-34.17
	c-5.47-2-11.18-2.09-16.39-0.61c-0.41-0.12-0.84-0.18-1.28-0.18c-1.74,0-3.26,0.94-4.08,2.35C59.93,56.57,55.4,61.52,53.07,67.91"/>
<path class="st0" d="M34.42,25.13c-5.37,14.7,2.19,30.97,16.89,36.34c14.7,5.37,30.97-2.19,36.34-16.89
	c5.37-14.69-2.19-30.97-16.89-36.34C56.06,2.87,39.79,10.43,34.42,25.13L34.42,25.13z M36.01,25.71
	c-5.05,13.82,2.06,29.12,15.88,34.17c5.47,2,11.18,2.09,16.39,0.61c0.41,0.12,0.84,0.18,1.29,0.18c1.74,0,3.26-0.94,4.08-2.35
	C79.2,55.34,83.73,50.39,86.06,44C91.11,30.18,84,14.88,70.18,9.83C56.36,4.78,41.06,11.89,36.01,25.71"/>
<g>
	<defs>
		<rect id="SVGID_1_" x="15.56" y="2.87" width="115.45" height="107.09"/>
	</defs>
	<clipPath id="SVGID_2_">
		<use xlink:href="#SVGID_1_"  style="overflow:visible;"/>
	</clipPath>
	<path class="st1" d="M138.23,68.42h0.91V43.91h-0.91V68.42z M158.92,68.42h0.91V44.8h0.09l25.7,23.62h1.19V43.91h-0.91v23.62h-0.09
		l-25.7-23.62h-1.18V68.42z M206.59,68.42h0.91V43.91h-0.91V68.42z M237.4,68.42h0.91V44.6h13.58v-0.69h-28.07v0.69h13.58V68.42z
		 M268.21,68.42h0.91V43.91h-0.91V68.42z M285.62,68.42h1.18l4.88-8.1h18.96l4.88,8.1h1.18l-14.95-24.52h-1.19L285.62,68.42z
		 M301.16,44.6l9.07,15.04h-18.14L301.16,44.6z M333.2,68.42h22.83v-0.69h-21.92V43.91h-0.91V68.42z M398.01,50.78
		c-0.32-3.78-2.55-7.42-13.4-7.42c-8.25,0-12.03,2.3-12.03,6.28c0,3.36,2.64,4.91,8.02,5.77l10.3,1.65c4.97,0.79,7.02,2.4,7.02,5.08
		c0,2.75-2.19,6.15-11.85,6.15c-7.84,0-13.63-1.75-13.72-7.93h-0.91c0.09,3.5,1.55,8.62,14.45,8.62c11.21,0,12.94-4.15,12.94-6.9
		c0-3.02-2.41-4.81-7.43-5.63l-10.94-1.79c-5.47-0.89-6.97-2.58-6.97-4.94c0-4.05,4.15-5.67,11.35-5.67
		c8.79,0,11.85,2.58,12.26,6.73H398.01z"/>
</g>
<g>
	<defs>
		<rect id="SVGID_3_" x="-76.85" y="-77.97" width="300" height="300"/>
	</defs>
	<clipPath id="SVGID_4_">
		<use xlink:href="#SVGID_3_"  style="overflow:visible;"/>
	</clipPath>
	<g class="st2">
		<path class="st3" d="M20.73,110.99h0.34v9.82h-0.34V110.99z"/>
		<path class="st3" d="M28.87,110.99h0.45l9.7,9.46h0.03v-9.46h0.34v9.82h-0.45l-9.7-9.46h-0.03v9.46h-0.34V110.99z"/>
		<path class="st3" d="M47.2,110.99h0.34v9.82H47.2V110.99z"/>
		<path class="st3" d="M59.16,111.26h-5.12v-0.28h10.59v0.28h-5.12v9.54h-0.34V111.26z"/>
		<path class="st3" d="M71.12,110.99h0.34v9.82h-0.34V110.99z"/>
		<path class="st3" d="M83.67,110.99h0.45l5.64,9.82h-0.45l-1.84-3.24h-7.15l-1.84,3.24h-0.45L83.67,110.99z M80.48,117.28h6.84
			l-3.42-6.02L80.48,117.28z"/>
		<path class="st3" d="M96.32,110.99h0.34v9.54h8.27v0.28h-8.62V110.99z"/>
		<path class="st3" d="M120.77,113.74c-0.15-1.66-1.31-2.69-4.63-2.69c-2.72,0-4.28,0.65-4.28,2.27c0,0.95,0.57,1.62,2.63,1.98
			l4.13,0.71c1.89,0.33,2.8,1.04,2.8,2.25c0,1.1-0.65,2.76-4.88,2.76c-4.87,0-5.42-2.05-5.45-3.45h0.34
			c0.04,2.47,2.22,3.18,5.18,3.18c3.65,0,4.47-1.36,4.47-2.46c0-1.07-0.77-1.72-2.65-2.04l-3.89-0.66
			c-2.03-0.34-3.03-0.96-3.03-2.31c0-1.59,1.43-2.52,4.54-2.52c4.09,0,4.94,1.46,5.06,2.97H120.77z"/>
	</g>
</g>
<g>
	<defs>
		<rect id="SVGID_5_" x="-76.85" y="-77.97" width="300" height="300"/>
	</defs>
	<clipPath id="SVGID_6_">
		<use xlink:href="#SVGID_5_"  style="overflow:visible;"/>
	</clipPath>
	<g class="st4">
		<text transform="matrix(1.25 0 0 1 121.9752 120.8028)" class="st5 st6 st7"> </text>
	</g>
</g>
<text transform="matrix(1.25 0 0 1 121.9752 120.8028)" class="st6 st7"> </text>
<g>
	<defs>
		<rect id="SVGID_7_" x="-76.85" y="-77.97" width="300" height="300"/>
	</defs>
	<clipPath id="SVGID_8_">
		<use xlink:href="#SVGID_7_"  style="overflow:visible;"/>
	</clipPath>
	<g class="st8">
		<path class="st9" d="M20.1,124.82h2.23c0.65,0,1.1,0.28,1.1,0.81c0,0.38-0.42,0.75-0.91,0.74v0.01c0.53,0.02,1.03,0.25,1.03,0.82
			c0,0.38-0.3,0.89-1.38,0.89H20.1V124.82z M20.21,126.34h2.01c0.69,0,1.09-0.36,1.09-0.71c0-0.48-0.4-0.72-1.01-0.72h-2.09V126.34z
			 M20.21,127.99h1.96c1.02,0,1.26-0.48,1.26-0.8c0-0.6-0.59-0.77-1.26-0.77h-1.96V127.99z"/>
		<path class="st9" d="M27.75,126.71l-1.93-1.89h0.17l1.82,1.79l1.82-1.79h0.17l-1.93,1.89v1.38h-0.11V126.71z"/>
	</g>
	<g class="st8">
		<path class="st9" d="M37.75,124.82h0.11v1.52h3.28v-1.52h0.11v3.27h-0.11v-1.66h-3.28v1.66h-0.11V124.82z"/>
		<path class="st9" d="M45.65,124.82h0.15l1.88,3.27h-0.15L46.92,127h-2.39l-0.61,1.08h-0.15L45.65,124.82z M44.58,126.91h2.28
			l-1.14-2L44.58,126.91z"/>
		<path class="st9" d="M51.65,124.82h0.15l1.88,3.27h-0.15L52.92,127h-2.39l-0.61,1.08h-0.15L51.65,124.82z M50.59,126.91h2.28
			l-1.14-2L50.59,126.91z"/>
		<path class="st9" d="M56.19,124.82h0.15l3.24,3.15h0.01v-3.15h0.11v3.27h-0.15l-3.24-3.15H56.3v3.15h-0.11V124.82z"/>
		<path class="st9" d="M65.72,125.73c-0.05-0.55-0.44-0.9-1.54-0.9c-0.91,0-1.43,0.21-1.43,0.75c0,0.32,0.19,0.54,0.88,0.66
			l1.38,0.24c0.63,0.11,0.94,0.35,0.94,0.75c0,0.37-0.22,0.92-1.63,0.92c-1.62,0-1.81-0.68-1.82-1.15h0.11
			c0.01,0.82,0.74,1.06,1.73,1.06c1.22,0,1.49-0.45,1.49-0.82c0-0.36-0.26-0.57-0.88-0.68l-1.3-0.22c-0.68-0.11-1.01-0.32-1.01-0.77
			c0-0.53,0.48-0.84,1.51-0.84c1.37,0,1.65,0.49,1.69,0.99H65.72z"/>
	</g>
	<g class="st8">
		<path class="st9" d="M74.23,124.82h0.12v3.18h2.76v0.09h-2.87V124.82z"/>
		<path class="st9" d="M79.6,124.82h0.12v3.27H79.6V124.82z"/>
		<path class="st9" d="M82.63,124.82h2.88v0.09h-2.76v1.43h2.59v0.09h-2.59v1.66h-0.12V124.82z"/>
		<path class="st9" d="M88.11,124.82h3.19v0.09h-3.08v1.43h2.94v0.09h-2.94v1.57h3.11v0.09h-3.22V124.82z"/>
		<path class="st9" d="M97.12,125.73c-0.05-0.55-0.44-0.9-1.54-0.9c-0.91,0-1.43,0.21-1.43,0.75c0,0.32,0.19,0.54,0.88,0.66
			l1.38,0.24c0.63,0.11,0.94,0.35,0.94,0.75c0,0.37-0.22,0.92-1.63,0.92c-1.62,0-1.81-0.68-1.82-1.15H94
			c0.01,0.82,0.74,1.06,1.73,1.06c1.22,0,1.49-0.45,1.49-0.82c0-0.36-0.26-0.57-0.88-0.68l-1.3-0.22c-0.68-0.11-1.01-0.32-1.01-0.77
			c0-0.53,0.48-0.84,1.51-0.84c1.37,0,1.65,0.49,1.69,0.99H97.12z"/>
		<path class="st9" d="M101.4,124.91h-1.71v-0.09h3.53v0.09h-1.71v3.18h-0.12V124.91z"/>
		<path class="st9" d="M107.14,126.71l-1.93-1.89h0.17l1.83,1.79l1.82-1.79h0.17l-1.93,1.89v1.38h-0.11V126.71z"/>
		<path class="st9" d="M111.61,124.82h0.12v3.18h2.76v0.09h-2.87V124.82z"/>
		<path class="st9" d="M116.98,124.82h3.19v0.09h-3.08v1.43h2.94v0.09h-2.94v1.57h3.11v0.09h-3.22V124.82z"/>
	</g>
	<g class="st8">
		<text transform="matrix(1.25 0 0 1 120.2721 128.0841)" class="st5 st6 st10"> </text>
	</g>
</g>
<text transform="matrix(1.25 0 0 1 120.2721 128.0841)" class="st6 st10"> </text>
<rect x="4.82" y="2.83" class="st11" width="128.17" height="130.38"/>
</svg>
